DataDescription
…
plot 7: This plot shows how sales change over time. In addition, the plot also tells me whether the three product categories follow similar or different patterns.

#7. Monthly sales trends by product category
monthly_category_sales <- dt_date %>%
  drop_na(order_year_month,category,sales) %>%
  group_by(order_year_month,category ) %>%
  summarize(total_sales = sum(sales,na.rm = TRUE),.groups = "drop")

monthly_category_sales

# A tibble: 144 × 3
   order_year_month category        total_sales
   <date>           <chr>                 <dbl>
 1 2014-01-01       Furniture             6243.
 2 2014-01-01       Office Supplies       4851.
 3 2014-01-01       Technology            3143.
 4 2014-02-01       Furniture             1840.
 5 2014-02-01       Office Supplies       1072.
 6 2014-02-01       Technology            1609.
 7 2014-03-01       Furniture            14574.
 8 2014-03-01       Office Supplies       8606.
 9 2014-03-01       Technology           32511.
10 2014-04-01       Furniture             7945.
# ℹ 134 more rows
…
